<?xml version="1.0" encoding="utf-8"?>
<!-- Generator: Adobe Illustrator 15.0.0, SVG Export Plug-In . SVG Version: 6.00 Build 0)  -->
<!DOCTYPE svg PUBLIC "-//W3C//DTD SVG 1.1//EN" "http://www.w3.org/Graphics/SVG/1.1/DTD/svg11.dtd">
<svg version="1.1" id="Capa_1" xmlns="http://www.w3.org/2000/svg" xmlns:xlink="http://www.w3.org/1999/xlink" x="0px" y="0px"
	 width="200px" height="100px" viewBox="0 0 200 100" enable-background="new 0 0 200 100" xml:space="preserve">
<g>
	<path fill-rule="evenodd" clip-rule="evenodd" fill="#999999" d="M103.603,95.819l0.505-1.353c0.796,0.521,1.438,0.782,1.925,0.782
		c0.88,0,1.321-0.372,1.321-1.114c0-0.531-0.426-0.987-1.278-1.367c-0.656-0.299-1.098-0.529-1.326-0.685
		c-0.229-0.156-0.427-0.332-0.593-0.529c-0.169-0.198-0.293-0.407-0.378-0.631c-0.081-0.224-0.123-0.463-0.123-0.72
		c0-0.661,0.242-1.178,0.722-1.549c0.483-0.37,1.111-0.555,1.889-0.555c0.585,0,1.323,0.185,2.218,0.555l-0.407,1.323
		c-0.565-0.451-1.136-0.679-1.705-0.679c-0.341,0-0.629,0.084-0.862,0.243c-0.234,0.16-0.349,0.363-0.349,0.61
		c0,0.516,0.293,0.906,0.88,1.174l1.021,0.464c0.626,0.288,1.083,0.61,1.369,0.978c0.287,0.367,0.428,0.823,0.428,1.375
		c0,0.723-0.252,1.289-0.76,1.697c-0.507,0.408-1.206,0.613-2.104,0.613C105.147,96.453,104.349,96.243,103.603,95.819
		 M96.841,92.257c0,2.021,0.716,3.028,2.144,3.028c0.667,0,1.19-0.27,1.568-0.812c0.38-0.541,0.566-1.281,0.566-2.217
		c0-1.996-0.711-2.993-2.134-2.993c-0.653,0-1.171,0.266-1.561,0.797C97.036,90.591,96.841,91.326,96.841,92.257z M95.337,92.257
		c0-1.245,0.337-2.248,1.007-3.014c0.667-0.763,1.55-1.144,2.641-1.144c1.154,0,2.047,0.366,2.685,1.1
		c0.636,0.735,0.954,1.753,0.954,3.058c0,1.298-0.327,2.324-0.978,3.072c-0.651,0.749-1.538,1.124-2.662,1.124
		c-1.147,0-2.044-0.381-2.685-1.138C95.658,94.559,95.337,93.54,95.337,92.257z M92.165,96.303v-6.852h-1.106v-1.203h2.536v8.055
		H92.165z M92.948,85.205c0.244,0,0.455,0.084,0.626,0.258c0.174,0.172,0.259,0.38,0.259,0.623c0,0.241-0.085,0.453-0.259,0.624
		c-0.172,0.175-0.383,0.261-0.626,0.261c-0.241,0-0.449-0.086-0.621-0.261c-0.172-0.171-0.259-0.383-0.259-0.624
		c0-0.248,0.084-0.455,0.256-0.629C92.493,85.289,92.701,85.205,92.948,85.205z M89.924,88.902l-0.708,1.01
		c-0.145-0.147-0.401-0.286-0.771-0.414c-0.369-0.131-0.731-0.199-1.085-0.199c-0.777,0-1.394,0.274-1.85,0.817
		c-0.458,0.544-0.686,1.291-0.686,2.237c0,0.942,0.233,1.661,0.7,2.155c0.465,0.493,1.111,0.74,1.941,0.74
		c0.642,0,1.289-0.248,1.94-0.743l0.562,1.202c-0.768,0.496-1.717,0.745-2.849,0.745c-1.099,0-2.004-0.37-2.723-1.107
		c-0.716-0.734-1.076-1.734-1.076-2.992c0-1.282,0.372-2.312,1.117-3.09c0.746-0.777,1.765-1.164,3.056-1.164
		c0.418,0,0.868,0.087,1.355,0.261C89.334,88.536,89.693,88.718,89.924,88.902z M80.149,96.303v-6.852h-1.106v-1.203h2.535v8.055
		H80.149z M80.932,85.205c0.243,0,0.454,0.084,0.626,0.258c0.175,0.172,0.259,0.38,0.259,0.623c0,0.241-0.084,0.453-0.259,0.624
		c-0.172,0.175-0.383,0.261-0.626,0.261c-0.241,0-0.449-0.086-0.622-0.261c-0.171-0.171-0.258-0.383-0.258-0.624
		c0-0.248,0.084-0.455,0.256-0.629C80.477,85.289,80.685,85.205,80.932,85.205z M74.818,96.453h-0.375l-3.452-8.225h1.566
		l2.127,5.638l2.171-5.638h1.496L74.818,96.453z M70.309,89.624c-0.311-0.216-0.626-0.325-0.941-0.325
		c-0.506,0-0.948,0.235-1.328,0.702c-0.377,0.467-0.567,1.026-0.567,1.685v4.617h-1.43v-8.055h1.43v1.286
		c0.521-0.958,1.296-1.435,2.322-1.435c0.257,0,0.626,0.043,1.106,0.133L70.309,89.624z M60.851,89.299
		c-0.639,0-1.172,0.21-1.604,0.621c-0.411,0.39-0.642,0.875-0.698,1.456h4.458c0-0.576-0.18-1.056-0.542-1.441
		C62.07,89.511,61.531,89.299,60.851,89.299z M64.316,92.413h-5.805c0,0.945,0.259,1.669,0.775,2.174
		c0.457,0.442,1.042,0.662,1.761,0.662c0.815,0,1.499-0.237,2.045-0.713l0.6,1.029c-0.22,0.221-0.559,0.41-1.016,0.571
		c-0.57,0.212-1.206,0.316-1.91,0.316c-1.011,0-1.871-0.345-2.579-1.032c-0.785-0.756-1.181-1.774-1.181-3.051
		c0-1.331,0.406-2.395,1.211-3.195c0.722-0.72,1.576-1.075,2.564-1.075c1.148,0,2.048,0.323,2.701,0.97
		c0.63,0.62,0.946,1.444,0.946,2.472C64.429,91.858,64.391,92.149,64.316,92.413z M49.744,95.799l0.549-1.384
		c0.28,0.205,0.631,0.378,1.05,0.513c0.418,0.141,0.792,0.209,1.124,0.209c0.585,0,1.059-0.162,1.412-0.482
		c0.356-0.321,0.533-0.729,0.533-1.224c0-0.373-0.097-0.718-0.295-1.035c-0.197-0.317-0.695-0.665-1.493-1.042l-0.887-0.414
		c-0.75-0.352-1.276-0.767-1.574-1.247c-0.301-0.482-0.449-1.059-0.449-1.737c0-0.821,0.292-1.504,0.873-2.046
		c0.582-0.541,1.329-0.81,2.241-0.81c1.219,0,2.065,0.197,2.543,0.593l-0.444,1.309c-0.2-0.146-0.509-0.286-0.918-0.421
		c-0.411-0.137-0.791-0.202-1.143-0.202c-0.51,0-0.914,0.144-1.206,0.436c-0.295,0.289-0.441,0.664-0.441,1.119
		c0,0.283,0.054,0.536,0.159,0.768c0.105,0.229,0.252,0.423,0.438,0.579c0.188,0.154,0.573,0.373,1.155,0.655l0.903,0.429
		c0.75,0.354,1.278,0.779,1.581,1.273c0.303,0.494,0.455,1.121,0.455,1.883c0,0.826-0.331,1.53-0.996,2.104
		c-0.665,0.578-1.553,0.865-2.665,0.865C51.271,96.489,50.436,96.258,49.744,95.799z"/>
	<polyline fill-rule="evenodd" clip-rule="evenodd" fill="#FFFFFF" points="111.979,96.303 110.771,96.303 114.761,85.24 
		115.956,85.24 	"/>
	<path fill-rule="evenodd" clip-rule="evenodd" fill="#FFFFFF" d="M136.18,76.701h-34.995v-3.748
		c3.787-0.224,12.551-0.216,10.229-5.389c-7.05-16.956-14.479-33.7-21.855-50.521c-5.036,11.707-9.802,23.6-15.161,35.162
		c-2.393,5.336-5.318,10.591-5.318,16.099c0,3.867,9.226,4.514,12.129,4.649v3.748H49.592v-3.748
		c6.967-0.485,11.256-3.496,13.848-9.244c9.416-20.917,18.433-41.977,27.615-62.975h4.731l28.021,64.614
		c1.954,4.563,6.171,7.12,11.484,7.551C136.877,73.897,136.18,74.668,136.18,76.701"/>
	<path fill-rule="evenodd" clip-rule="evenodd" fill="#F7C200" d="M141.701,77.169h18.204c13.196-7.42,54.118-32.369,33.291-51.71
		c-16.305-15.139-54.74-5.637-72.903-0.937C107.023,27.957,1,65.805,1,65.805l70.868-22.841
		c19.35-5.275,92.344-32.248,107.435-13.134C194.388,48.938,152.673,70.123,141.701,77.169z"/>
	<path fill="none" stroke="#F7C200" stroke-width="0.216" stroke-miterlimit="10" d="M141.701,77.169h18.204
		c13.196-7.42,54.118-32.369,33.291-51.71c-16.305-15.139-54.74-5.637-72.903-0.937C107.023,27.957,1,65.805,1,65.805l70.868-22.841
		c19.35-5.275,92.344-32.248,107.435-13.134C194.388,48.938,152.673,70.123,141.701,77.169z"/>
	<path fill-rule="evenodd" clip-rule="evenodd" fill="#FFFFFF" d="M171.93,27.87c-4.348,0.713-7.287,2.709-9.18,6.289
		c-6.994,14.152-14.545,28.296-19.953,43.01h-4.608c-6.619-14.55-13.367-29.082-20.196-43.551c-1.599-3.17-5.408-4.986-9.139-5.478
		v-3.495h27.01v3.694c-2.008,0.061-7.912,0.427-6.813,3.151c4.988,10.664,9.655,21.459,14.697,32.108
		c4.521-9.673,9.16-19.283,13.442-29.044c2.062-4.689-3.469-5.979-7.58-6.523v-3.387h22.319"/>
	<path fill-rule="evenodd" clip-rule="evenodd" fill="#FFFFFF" d="M179.855,9.228c0,9.606-15.161,9.819-15.161,0.468
		C164.694,0.422,179.855,0.146,179.855,9.228"/>
	<path fill-rule="evenodd" clip-rule="evenodd" fill="#FFFFFF" d="M183.07,77.169h-23.996v-3.478
		c3.87-0.308,8.592-0.188,8.592-5.388V36.158c0-5.533-6.068-6.817-10.432-7.08v-3.424l20.622-1.171l0.827,0.738v42.451
		c0,4.711,4.792,5.75,8.632,6.019"/>
	<path fill-rule="evenodd" clip-rule="evenodd" fill="#FFFFFF" d="M182.295,95.661l0.655-1.468c0.553,0.438,1.174,0.656,1.867,0.656
		c0.717,0,1.076-0.256,1.076-0.767c0-0.301-0.107-0.547-0.324-0.738s-0.637-0.417-1.262-0.68c-1.362-0.564-2.044-1.357-2.044-2.374
		c0-0.683,0.261-1.216,0.784-1.596c0.521-0.383,1.188-0.571,1.997-0.571c0.821,0,1.595,0.184,2.316,0.551l-0.53,1.433
		c-0.403-0.346-0.965-0.518-1.682-0.518c-0.646,0-0.967,0.256-0.967,0.767c0,0.2,0.104,0.385,0.316,0.546
		c0.212,0.164,0.664,0.381,1.357,0.652c0.695,0.274,1.194,0.605,1.497,0.995c0.305,0.388,0.46,0.854,0.46,1.405
		c0,0.734-0.274,1.311-0.817,1.729c-0.543,0.422-1.28,0.634-2.217,0.634c-0.527,0-0.947-0.044-1.266-0.131
		C183.197,96.101,182.79,95.925,182.295,95.661 M175.907,92.201c0,1.74,0.624,2.611,1.879,2.611c0.577,0,1.033-0.227,1.37-0.68
		c0.335-0.45,0.503-1.096,0.503-1.932c0-1.717-0.625-2.575-1.873-2.575c-0.573,0-1.032,0.228-1.371,0.68
		C176.077,90.759,175.907,91.392,175.907,92.201z M173.988,92.201c0-1.205,0.35-2.185,1.043-2.942
		c0.696-0.758,1.615-1.135,2.755-1.135c1.201,0,2.132,0.362,2.796,1.089c0.665,0.729,0.996,1.726,0.996,2.988
		c0,1.259-0.337,2.258-1.016,3.002c-0.673,0.742-1.601,1.115-2.776,1.115c-1.198,0-2.133-0.375-2.8-1.125
		C174.322,94.442,173.988,93.445,173.988,92.201z M171.091,90.157c-0.393-0.314-0.803-0.471-1.23-0.471
		c-0.737,0-1.306,0.224-1.704,0.674c-0.398,0.452-0.598,1.097-0.598,1.937c0,1.642,0.791,2.462,2.375,2.462
		c0.176,0,0.393-0.052,0.651-0.157c0.26-0.106,0.428-0.212,0.506-0.319V90.157z M171.091,96.17V95.69
		c-0.151,0.166-0.41,0.313-0.774,0.438c-0.364,0.126-0.739,0.189-1.13,0.189c-1.099,0-1.967-0.351-2.6-1.047
		c-0.63-0.701-0.946-1.673-0.946-2.923s0.362-2.265,1.087-3.05c0.726-0.784,1.636-1.175,2.728-1.175
		c0.599,0,1.146,0.122,1.636,0.367v-3.165l1.844-0.44V96.17H171.091z M162.454,92.45c-0.313-0.062-0.548-0.094-0.707-0.094
		c-1.455,0-2.184,0.477-2.184,1.431c0,0.708,0.411,1.063,1.232,1.063c1.107,0,1.658-0.553,1.658-1.661V92.45z M162.633,95.382
		c-0.168,0.274-0.46,0.497-0.875,0.674c-0.416,0.175-0.85,0.263-1.301,0.263c-0.853,0-1.52-0.215-2.009-0.642
		c-0.484-0.424-0.729-1.028-0.729-1.808c0-0.915,0.344-1.632,1.028-2.148c0.688-0.515,1.662-0.773,2.926-0.773
		c0.217,0,0.472,0.036,0.765,0.111c0-0.929-0.585-1.394-1.762-1.394c-0.692,0-1.274,0.114-1.739,0.347l-0.397-1.433
		c0.634-0.305,1.387-0.455,2.264-0.455c1.206,0,2.086,0.274,2.648,0.819c0.559,0.549,0.84,1.589,0.84,3.117v1.689
		c0,1.053,0.212,1.715,0.634,1.983c-0.152,0.269-0.32,0.431-0.507,0.491c-0.188,0.06-0.403,0.094-0.644,0.094
		c-0.265,0-0.503-0.099-0.714-0.298C162.85,95.824,162.706,95.611,162.633,95.382z M157.094,89.988
		c-0.33-0.216-0.689-0.323-1.085-0.323c-0.428,0-0.805,0.193-1.139,0.581c-0.332,0.391-0.498,0.862-0.498,1.424v4.5h-1.842v-7.901
		h1.842v0.724c0.517-0.58,1.201-0.868,2.056-0.868c0.631,0,1.114,0.096,1.449,0.287L157.094,89.988z M146.474,91.043
		c0,0.467,0.128,0.842,0.385,1.127c0.261,0.28,0.607,0.422,1.045,0.422s0.775-0.139,1.009-0.413
		c0.238-0.273,0.356-0.655,0.356-1.136c0-0.396-0.126-0.734-0.381-1.011c-0.253-0.275-0.581-0.414-0.984-0.414
		c-0.422,0-0.769,0.135-1.032,0.401C146.604,90.283,146.474,90.627,146.474,91.043z M144.629,98.198l1.166-1.44
		c0.644,0.592,1.361,0.887,2.153,0.887c0.529,0,0.967-0.078,1.313-0.236c0.346-0.156,0.517-0.374,0.517-0.65
		c0-0.466-0.38-0.699-1.143-0.699c-0.207,0-0.516,0.024-0.923,0.073c-0.407,0.05-0.715,0.075-0.922,0.075
		c-1.269,0-1.901-0.455-1.901-1.363c0-0.263,0.105-0.518,0.316-0.769c0.211-0.252,0.456-0.436,0.738-0.555
		c-0.902-0.583-1.353-1.412-1.353-2.484c0-0.847,0.312-1.546,0.931-2.099c0.621-0.553,1.381-0.829,2.286-0.829
		c0.707,0,1.299,0.132,1.778,0.398l0.723-0.843l1.274,1.158l-0.878,0.644c0.304,0.46,0.459,1.007,0.459,1.635
		c0,0.902-0.274,1.62-0.823,2.159c-0.548,0.538-1.239,0.808-2.076,0.808c-0.133,0-0.312-0.013-0.529-0.037l-0.306-0.044
		c-0.032,0-0.165,0.053-0.393,0.157c-0.229,0.107-0.344,0.215-0.344,0.33c0,0.195,0.17,0.293,0.51,0.293
		c0.151,0,0.408-0.036,0.766-0.109c0.359-0.074,0.668-0.112,0.923-0.112c1.794,0,2.691,0.724,2.691,2.163
		c0,0.797-0.359,1.423-1.075,1.875c-0.718,0.456-1.585,0.683-2.597,0.683C146.701,99.266,145.607,98.911,144.629,98.198z
		 M138.285,91.396h3.88c-0.126-1.152-0.766-1.731-1.916-1.731C139.198,89.665,138.542,90.244,138.285,91.396z M143.861,92.783
		h-5.641c0.035,0.629,0.251,1.121,0.649,1.468c0.397,0.351,0.934,0.523,1.608,0.523c0.841,0,1.477-0.22,1.915-0.654l0.715,1.407
		c-0.646,0.527-1.614,0.791-2.904,0.791c-1.202,0-2.157-0.354-2.857-1.061c-0.7-0.705-1.052-1.689-1.052-2.953
		c0-1.243,0.385-2.252,1.155-3.022c0.771-0.773,1.691-1.158,2.77-1.158c1.146,0,2.063,0.339,2.759,1.023
		c0.691,0.683,1.04,1.554,1.04,2.611C144.019,91.986,143.966,92.328,143.861,92.783z M131.375,89.753h-0.912v-1.484h0.912v-1.605
		l1.844-0.68v2.285h2.17v1.484h-2.17v3.458c0,0.565,0.088,0.964,0.268,1.199c0.176,0.234,0.487,0.349,0.928,0.349
		c0.443,0,0.857-0.117,1.24-0.359v1.696c-0.429,0.146-1.038,0.223-1.829,0.223c-0.788,0-1.392-0.225-1.814-0.67
		c-0.424-0.443-0.636-1.078-0.636-1.898V89.753z M127.533,96.17v-4.564c0-0.675-0.128-1.165-0.388-1.476
		c-0.257-0.31-0.68-0.465-1.264-0.465c-0.271,0-0.559,0.075-0.866,0.228c-0.307,0.152-0.549,0.344-0.719,0.566v5.711h-1.844v-7.901
		h1.326l0.341,0.737c0.5-0.589,1.24-0.882,2.218-0.882c0.94,0,1.681,0.282,2.226,0.843c0.543,0.563,0.812,1.35,0.812,2.356v4.847
		H127.533z M118.668,96.17V85.364h1.919V96.17H118.668z"/>
</g>
</svg>
